%YAML 1.1
%TAG !u! tag:unity3d.com,2011:
--- !u!1 &166806
GameObject:
  m_ObjectHideFlags: 0
  m_PrefabParentObject: {fileID: 0}
  m_PrefabInternal: {fileID: 100100000}
  serializedVersion: 5
  m_Component:
  - component: {fileID: 400622}
  - component: {fileID: 11434472}
  m_Layer: 0
  m_Name: mine_controller
  m_TagString: Untagged
  m_Icon: {fileID: 0}
  m_NavMeshLayer: 0
  m_StaticEditorFlags: 0
  m_IsActive: 1
--- !u!4 &400622
Transform:
  m_ObjectHideFlags: 1
  m_PrefabParentObject: {fileID: 0}
  m_PrefabInternal: {fileID: 100100000}
  m_GameObject: {fileID: 166806}
  m_LocalRotation: {x: 0, y: 0, z: 0, w: 1}
  m_LocalPosition: {x: 8.03, y: 0.24823895, z: -0.16699219}
  m_LocalScale: {x: 1, y: 1, z: 1}
  m_Children: []
  m_Father: {fileID: 0}
  m_RootOrder: 0
  m_LocalEulerAnglesHint: {x: 0, y: 0, z: 0}
--- !u!114 &11434472
MonoBehaviour:
  m_ObjectHideFlags: 1
  m_PrefabParentObject: {fileID: 0}
  m_PrefabInternal: {fileID: 100100000}
  m_GameObject: {fileID: 166806}
  m_Enabled: 1
  m_EditorHideFlags: 0
  m_Script: {fileID: 11500000, guid: e03c27d2f870a7c45b9297fd0f4b69d4, type: 3}
  m_Name: 
  m_EditorClassIdentifier: 
  ship: {fileID: 0}
  number_of_mines: 5
  mine: {fileID: 130818, guid: cc3ad036093de7d4185d66aa8e727097, type: 2}
  icon: {fileID: 21300000, guid: f48328f2deeda034d8cb90ada2f9cf13, type: 3}
--- !u!1001 &100100000
Prefab:
  m_ObjectHideFlags: 1
  serializedVersion: 2
  m_Modification:
    m_TransformParent: {fileID: 0}
    m_Modifications:
    - target: {fileID: 0}
      propertyPath: icon
      value: 
      objectReference: {fileID: 21300000, guid: f48328f2deeda034d8cb90ada2f9cf13,
        type: 3}
    m_RemovedComponents: []
  m_ParentPrefab: {fileID: 0}
  m_RootGameObject: {fileID: 166806}
  m_IsPrefabParent: 1
